[
  {
    "Date": "2019-07-22",
    "Open": 2981.929932,
    "High": 2990.709961,
    "Low": 2976.649902,
    "Close": 2985.030029,
    "Volume": 3003720000
  },
  {
    "Date": "2019-07-23",
    "Open": 2994.73999,
    "High": 3005.899902,
    "Low": 2988.560059,
    "Close": 3005.469971,
    "Adj Close": 3005.469971,
    "Volume": 3313660000
  },
  {
    "Date": "2019-07-24",
    "Open": 2998.77002,
    "High": 3019.590088,
    "Low": 2996.820068,
    "Close": 3019.560059,
    "Volume": 3428980000
  },
  {
    "Date": "2019-07-25",
    "Open": 3016.26001,
    "High": 3016.310059,
    "Low": 2997.23999,
    "Close": 3003.669922,
    "Volume": 3645270000
  },
  {
    "Date": "2019-07-26",
    "Open": 3013.25,
    "High": 3027.97998,
    "Low": 3012.590088,
    "Close": 3025.860107,
    "Volume": 3257590000
  },
  {
    "Date": "2019-07-29",
    "Open": 3024.469971,
    "High": 3025.610107,
    "Low": 3014.300049,
    "Close": 3020.969971,
    "Volume": 3203710000
  },
  {
    "Date": "2019-07-30",
    "Open": 3007.659912,
    "High": 3017.189941,
    "Low": 3000.939941,
    "Close": 3013.179932,
    "Volume": 3634330000
  },
  {
    "Date": "2019-07-31",
    "Open": 3016.219971,
    "High": 3017.399902,
    "Low": 2958.080078,
    "Close": 2980.379883,
    "Volume": 4623430000
  },
  {
    "Date": "2019-08-01",
    "Open": 2980.320068,
    "High": 3013.590088,
    "Low": 2945.22998,
    "Close": 2953.560059,
    "Volume": 4762300000
  },
  {
    "Date": "2019-08-02",
    "Open": 2943.899902,
    "High": 2945.5,
    "Low": 2914.110107,
    "Close": 2932.050049,
    "Volume": 3874660000
  },
  {
    "Date": "2019-08-05",
    "Open": 2898.070068,
    "High": 2898.070068,
    "Low": 2822.120117,
    "Close": 2844.73999,
    "Volume": 4513730000
  },
  {
    "Date": "2019-08-06",
    "Open": 2861.179932,
    "High": 2884.399902,
    "Low": 2847.419922,
    "Close": 2881.77002,
    "Volume": 4154240000
  },
  {
    "Date": "2019-08-07",
    "Open": 2858.649902,
    "High": 2892.169922,
    "Low": 2825.709961,
    "Close": 2883.97998,
    "Volume": 4491750000
  },
  {
    "Date": "2019-08-08",
    "Open": 2896.209961,
    "High": 2938.719971,
    "Low": 2894.469971,
    "Close": 2938.090088,
    "Volume": 4106370000
  },
  {
    "Date": "2019-08-09",
    "Open": 2930.51001,
    "High": 2935.75,
    "Low": 2900.149902,
    "Close": 2918.649902,
    "Volume": 3350640000
  },
  {
    "Date": "2019-08-12",
    "Open": 2907.070068,
    "High": 2907.580078,
    "Low": 2873.139893,
    "Close": 2882.699951,
    "Adj Close": 2882.699951,
    "Volume": 2851630000
  },
  {
    "Date": "2019-08-13",
    "Open": 2880.719971,
    "High": 2943.310059,
    "Low": 2877.050049,
    "Close": 2926.320068,
    "Volume": 3853600000
  },
  {
    "Date": "2019-08-14",
    "Open": 2894.149902,
    "High": 2894.149902,
    "Low": 2839.639893,
    "Close": 2840.600098,
    "Volume": 4312530000
  },
  {
    "Date": "2019-08-15",
    "Open": 2846.199951,
    "High": 2856.669922,
    "Low": 2825.51001,
    "Close": 2847.600098,
    "Adj Close": 2847.600098,
    "Volume": 4038000000
  },
  {
    "Date": "2019-08-16",
    "Open": 2864.73999,
    "High": 2893.629883,
    "Low": 2864.73999,
    "Close": 2888.679932,
    "Adj Close": 2888.679932,
    "Volume": 3498150000
  },
  {
    "Date": "2019-08-19",
    "Open": 2913.47998,
    "High": 2931,
    "Low": 2913.47998,
    "Close": 2923.649902,
    "Volume": 3212880000
  },
  {
    "Date": "2019-08-20",
    "Open": 2919.01001,
    "High": 2923.629883,
    "Low": 2899.600098,
    "Close": 2900.51001,
    "Volume": 3066300000
  },
  {
    "Date": "2019-08-21",
    "Open": 2922.040039,
    "High": 2928.72998,
    "Low": 2917.909912,
    "Close": 2924.429932,
    "Adj Close": 2924.429932,
    "Volume": 3011190000
  },
  {
    "Date": "2019-08-22",
    "Open": 2930.939941,
    "High": 2939.080078,
    "Low": 2904.51001,
    "Close": 2922.949951,
    "Volume": 2890880000
  },
  {
    "Date": "2019-08-23",
    "Open": 2911.070068,
    "High": 2927.01001,
    "Low": 2834.969971,
    "Close": 2847.110107,
    "Volume": 3937300000
  },
  {
    "Date": "2019-08-26",
    "Open": 2866.699951,
    "High": 2879.27002,
    "Low": 2856,
    "Close": 2878.379883,
    "Volume": 2857600000
  },
  {
    "Date": "2019-08-27",
    "Open": 2893.139893,
    "High": 2898.790039,
    "Low": 2860.590088,
    "Close": 2869.159912,
    "Volume": 3533630000
  },
  {
    "Date": "2019-08-28",
    "Open": 2861.280029,
    "High": 2890.030029,
    "Low": 2853.050049,
    "Close": 2887.939941,
    "Volume": 3097420000
  },
  {
    "Date": "2019-08-29",
    "Open": 2910.370117,
    "High": 2930.5,
    "Low": 2905.669922,
    "Close": 2924.580078,
    "Volume": 3176190000
  },
  {
    "Date": "2019-08-30",
    "Open": 2937.090088,
    "High": 2940.429932,
    "Low": 2913.320068,
    "Close": 2926.459961,
    "Volume": 3008450000
  },
  {
    "Date": "2019-09-03",
    "Open": 2909.01001,
    "High": 2914.389893,
    "Low": 2891.850098,
    "Close": 2906.27002,
    "Volume": 3426790000
  },
  {
    "Date": "2019-09-04",
    "Open": 2924.669922,
    "High": 2938.840088,
    "Low": 2921.860107,
    "Close": 2937.780029,
    "Volume": 3163260000
  },
  {
    "Date": "2019-09-05",
    "Open": 2960.600098,
    "High": 2985.860107,
    "Low": 2960.600098,
    "Close": 2976,
    "Volume": 3890700000
  },
  {
    "Date": "2019-09-06",
    "Open": 2980.330078,
    "High": 2985.030029,
    "Low": 2972.51001,
    "Close": 2978.709961,
    "Volume": 3208280000
  },
  {
    "Date": "2019-09-09",
    "Open": 2988.429932,
    "High": 2989.429932,
    "Low": 2969.389893,
    "Close": 2978.429932,
    "Volume": 4002890000
  },
  {
    "Date": "2019-09-10",
    "Open": 2971.01001,
    "High": 2979.389893,
    "Low": 2957.01001,
    "Close": 2979.389893,
    "Volume": 4390770000
  },
  {
    "Date": "2019-09-11",
    "Open": 2981.409912,
    "High": 3000.929932,
    "Low": 2975.310059,
    "Close": 3000.929932,
    "Volume": 3927550000
  },
  {
    "Date": "2019-09-12",
    "Open": 3009.080078,
    "High": 3020.73999,
    "Low": 3000.919922,
    "Close": 3009.570068,
    "Volume": 3791860000
  },
  {
    "Date": "2019-09-13",
    "Open": 3012.209961,
    "High": 3017.330078,
    "Low": 3002.899902,
    "Close": 3007.389893,
    "Volume": 3520060000
  },
  {
    "Date": "2019-09-16",
    "Open": 2996.409912,
    "High": 3002.189941,
    "Low": 2990.669922,
    "Close": 2997.959961,
    "Volume": 4274640000
  },
  {
    "Date": "2019-09-17",
    "Open": 2995.669922,
    "High": 3006.209961,
    "Low": 2993.72998,
    "Close": 3005.699951,
    "Volume": 3671840000
  },
  {
    "Date": "2019-09-18",
    "Open": 3001.5,
    "High": 3007.830078,
    "Low": 2978.570068,
    "Close": 3006.72998,
    "Volume": 3435540000
  },
  {
    "Date": "2019-09-19",
    "Open": 3010.360107,
    "High": 3021.98999,
    "Low": 3003.159912,
    "Close": 3006.790039,
    "Volume": 3251290000
  },
  {
    "Date": "2019-09-20",
    "Open": 3008.419922,
    "High": 3016.370117,
    "Low": 2984.679932,
    "Close": 2992.070068,
    "Volume": 6094740000
  },
  {
    "Date": "2019-09-23",
    "Open": 2983.5,
    "High": 2999.149902,
    "Low": 2982.22998,
    "Close": 2991.780029,
    "Volume": 3186590000
  },
  {
    "Date": "2019-09-24",
    "Open": 3002.429932,
    "High": 3007.97998,
    "Low": 2957.72998,
    "Close": 2966.600098,
    "Volume": 3868160000
  },
  {
    "Date": "2019-09-25",
    "Open": 2968.350098,
    "High": 2989.820068,
    "Low": 2952.860107,
    "Close": 2984.870117,
    "Volume": 3318870000
  },
  {
    "Date": "2019-09-26",
    "Open": 2985.72998,
    "High": 2987.280029,
    "Low": 2963.709961,
    "Close": 2977.620117,
    "Volume": 3077240000
  },
  {
    "Date": "2019-09-27",
    "Open": 2985.469971,
    "High": 2987.310059,
    "Low": 2945.530029,
    "Close": 2961.790039,
    "Volume": 3243650000
  },
  {
    "Date": "2019-09-30",
    "Open": 2967.070068,
    "High": 2983.850098,
    "Low": 2967.070068,
    "Close": 2976.73999,
    "Volume": 3247610000
  },
  {
    "Date": "2019-10-01",
    "Open": 2983.689941,
    "High": 2992.530029,
    "Low": 2938.699951,
    "Close": 2940.25,
    "Volume": 3558040000
  },
  {
    "Date": "2019-10-02",
    "Open": 2924.780029,
    "High": 2924.780029,
    "Low": 2874.929932,
    "Close": 2887.610107,
    "Volume": 3912520000
  },
  {
    "Date": "2019-10-03",
    "Open": 2885.379883,
    "High": 2911.129883,
    "Low": 2855.939941,
    "Close": 2910.629883,
    "Volume": 3503640000
  },
  {
    "Date": "2019-10-04",
    "Open": 2918.560059,
    "High": 2953.73999,
    "Low": 2918.560059,
    "Close": 2952.01001,
    "Volume": 2990830000
  },
  {
    "Date": "2019-10-07",
    "Open": 2944.22998,
    "High": 2959.75,
    "Low": 2935.679932,
    "Close": 2938.790039,
    "Volume": 2940140000
  },
  {
    "Date": "2019-10-08",
    "Open": 2920.399902,
    "High": 2925.469971,
    "Low": 2892.659912,
    "Close": 2893.060059,
    "Volume": 3356450000
  },
  {
    "Date": "2019-10-09",
    "Open": 2911.100098,
    "High": 2929.320068,
    "Low": 2907.409912,
    "Close": 2919.399902,
    "Volume": 2726820000
  },
  {
    "Date": "2019-10-10",
    "Open": 2918.550049,
    "High": 2948.459961,
    "Low": 2917.120117,
    "Close": 2938.129883,
    "Volume": 3217250000
  },
  {
    "Date": "2019-10-11",
    "Open": 2963.070068,
    "High": 2993.280029,
    "Low": 2963.070068,
    "Close": 2970.27002,
    "Volume": 3580460000
  },
  {
    "Date": "2019-10-14",
    "Open": 2965.810059,
    "High": 2972.840088,
    "Low": 2962.939941,
    "Close": 2966.149902,
    "Volume": 2557020000
  },
  {
    "Date": "2019-10-15",
    "Open": 2973.610107,
    "High": 3003.280029,
    "Low": 2973.610107,
    "Close": 2995.679932,
    "Volume": 3340740000
  },
  {
    "Date": "2019-10-16",
    "Open": 2989.679932,
    "High": 2997.540039,
    "Low": 2985.199951,
    "Close": 2989.689941,
    "Volume": 3222570000
  },
  {
    "Date": "2019-10-17",
    "Open": 3000.77002,
    "High": 3008.290039,
    "Low": 2991.790039,
    "Close": 2997.949951,
    "Volume": 3115960000
  },
  {
    "Date": "2019-10-18",
    "Open": 2996.840088,
    "High": 3000,
    "Low": 2976.310059,
    "Close": 2986.199951,
    "Volume": 3264290000
  },
  {
    "Date": "2019-10-21",
    "Open": 2996.47998,
    "High": 3007.330078,
    "Low": 2995.350098,
    "Close": 3006.719971,
    "Volume": 3271620000
  },
  {
    "Date": "2019-10-22",
    "Open": 3010.72998,
    "High": 3014.570068,
    "Low": 2995.040039,
    "Close": 2995.98999,
    "Volume": 3523890000
  },
  {
    "Date": "2019-10-23",
    "Open": 2994.01001,
    "High": 3004.780029,
    "Low": 2991.209961,
    "Close": 3004.52002,
    "Adj Close": 3004.52002,
    "Volume": 3392870000
  },
  {
    "Date": "2019-10-24",
    "Open": 3014.780029,
    "High": 3016.070068,
    "Low": 3000.419922,
    "Close": 3010.290039,
    "Volume": 3692600000
  },
  {
    "Date": "2019-10-25",
    "Open": 3003.320068,
    "High": 3027.389893,
    "Low": 3001.939941,
    "Close": 3022.550049,
    "Volume": 3370370000
  },
  {
    "Date": "2019-10-28",
    "Open": 3032.120117,
    "High": 3044.080078,
    "Low": 3032.120117,
    "Close": 3039.419922,
    "Volume": 3521230000
  },
  {
    "Date": "2019-10-29",
    "Open": 3035.389893,
    "High": 3047.870117,
    "Low": 3034.810059,
    "Close": 3036.889893,
    "Volume": 3589930000
  },
  {
    "Date": "2019-10-30",
    "Open": 3039.73999,
    "High": 3050.100098,
    "Low": 3025.959961,
    "Close": 3046.77002,
    "Volume": 3776030000
  },
  {
    "Date": "2019-10-31",
    "Open": 3046.899902,
    "High": 3046.899902,
    "Low": 3023.189941,
    "Close": 3037.560059,
    "Volume": 4139280000
  },
  {
    "Date": "2019-11-01",
    "Open": 3050.719971,
    "High": 3066.949951,
    "Low": 3050.719971,
    "Close": 3066.909912,
    "Volume": 3930200000
  },
  {
    "Date": "2019-11-04",
    "Open": 3078.959961,
    "High": 3085.199951,
    "Low": 3074.870117,
    "Close": 3078.27002,
    "Volume": 4146850000
  },
  {
    "Date": "2019-11-05",
    "Open": 3080.800049,
    "High": 3083.949951,
    "Low": 3072.149902,
    "Close": 3074.620117,
    "Volume": 4486130000
  },
  {
    "Date": "2019-11-06",
    "Open": 3075.100098,
    "High": 3078.340088,
    "Low": 3065.889893,
    "Close": 3076.780029,
    "Volume": 4458190000
  },
  {
    "Date": "2019-11-07",
    "Open": 3087.02002,
    "High": 3097.77002,
    "Low": 3080.22998,
    "Close": 3085.179932,
    "Volume": 4144640000
  },
  {
    "Date": "2019-11-08",
    "Open": 3081.25,
    "High": 3093.090088,
    "Low": 3073.580078,
    "Close": 3093.080078,
    "Volume": 3499150000
  },
  {
    "Date": "2019-11-11",
    "Open": 3080.330078,
    "High": 3088.330078,
    "Low": 3075.820068,
    "Close": 3087.01001,
    "Volume": 3035530000
  },
  {
    "Date": "2019-11-12",
    "Open": 3089.280029,
    "High": 3102.610107,
    "Low": 3084.72998,
    "Close": 3091.840088,
    "Volume": 3466010000
  },
  {
    "Date": "2019-11-13",
    "Open": 3084.179932,
    "High": 3098.060059,
    "Low": 3078.800049,
    "Close": 3094.040039,
    "Volume": 3509280000
  },
  {
    "Date": "2019-11-14",
    "Open": 3090.75,
    "High": 3098.199951,
    "Low": 3083.26001,
    "Close": 3096.629883,
    "Volume": 3276070000
  },
  {
    "Date": "2019-11-15",
    "Open": 3107.919922,
    "High": 3120.459961,
    "Low": 3104.600098,
    "Close": 3120.459961,
    "Volume": 3335650000
  },
  {
    "Date": "2019-11-18",
    "Open": 3117.909912,
    "High": 3124.169922,
    "Low": 3112.060059,
    "Close": 3122.030029,
    "Volume": 3436690000
  },
  {
    "Date": "2019-11-19",
    "Open": 3127.449951,
    "High": 3127.639893,
    "Low": 3113.469971,
    "Close": 3120.179932,
    "Volume": 3590070000
  },
  {
    "Date": "2019-11-20",
    "Open": 3114.659912,
    "High": 3118.969971,
    "Low": 3091.409912,
    "Close": 3108.459961,
    "Volume": 4034890000
  },
  {
    "Date": "2019-11-21",
    "Open": 3108.48999,
    "High": 3110.110107,
    "Low": 3094.550049,
    "Close": 3103.540039,
    "Volume": 3720560000
  },
  {
    "Date": "2019-11-22",
    "Open": 3111.409912,
    "High": 3112.870117,
    "Low": 3099.26001,
    "Close": 3110.290039,
    "Volume": 3226780000
  },
  {
    "Date": "2019-11-25",
    "Open": 3117.439941,
    "High": 3133.830078,
    "Low": 3117.439941,
    "Close": 3133.639893,
    "Volume": 3511530000
  },
  {
    "Date": "2019-11-26",
    "Open": 3134.850098,
    "High": 3142.689941,
    "Low": 3131,
    "Close": 3140.52002,
    "Volume": 4595590000
  },
  {
    "Date": "2019-11-27",
    "Open": 3145.48999,
    "High": 3154.26001,
    "Low": 3143.409912,
    "Close": 3153.629883,
    "Volume": 3033090000
  },
  {
    "Date": "2019-11-29",
    "Open": 3147.179932,
    "High": 3150.300049,
    "Low": 3139.340088,
    "Close": 3140.97998,
    "Volume": 1743020000
  },
  {
    "Date": "2019-12-02",
    "Open": 3143.850098,
    "High": 3144.310059,
    "Low": 3110.780029,
    "Close": 3113.870117,
    "Adj Close": 3113.870117,
    "Volume": 3268740000
  },
  {
    "Date": "2019-12-03",
    "Open": 3087.409912,
    "High": 3094.969971,
    "Low": 3070.330078,
    "Close": 3093.199951,
    "Volume": 3653390000
  },
  {
    "Date": "2019-12-04",
    "Open": 3103.5,
    "High": 3119.379883,
    "Low": 3102.530029,
    "Close": 3112.76001,
    "Volume": 3695030000
  },
  {
    "Date": "2019-12-05",
    "Open": 3119.209961,
    "High": 3119.449951,
    "Low": 3103.76001,
    "Close": 3117.429932,
    "Volume": 3355750000
  },
  {
    "Date": "2019-12-06",
    "Open": 3134.620117,
    "High": 3150.600098,
    "Low": 3134.620117,
    "Close": 3145.909912,
    "Volume": 3479480000
  },
  {
    "Date": "2019-12-09",
    "Open": 3141.860107,
    "High": 3148.870117,
    "Low": 3135.459961,
    "Close": 3135.959961,
    "Volume": 3345990000
  },
  {
    "Date": "2019-12-10",
    "Open": 3135.360107,
    "High": 3142.120117,
    "Low": 3126.090088,
    "Close": 3132.52002,
    "Volume": 3343790000
  },
  {
    "Date": "2019-12-11",
    "Open": 3135.75,
    "High": 3143.97998,
    "Low": 3133.209961,
    "Close": 3141.629883,
    "Volume": 3252540000
  },
  {
    "Date": "2019-12-12",
    "Open": 3141.22998,
    "High": 3176.280029,
    "Low": 3138.469971,
    "Close": 3168.570068,
    "Volume": 3990690000
  },
  {
    "Date": "2019-12-13",
    "Open": 3166.649902,
    "High": 3182.679932,
    "Low": 3156.51001,
    "Close": 3168.800049,
    "Volume": 3736870000
  },
  {
    "Date": "2019-12-16",
    "Open": 3183.629883,
    "High": 3197.709961,
    "Low": 3183.629883,
    "Close": 3191.449951,
    "Volume": 4051790000
  },
  {
    "Date": "2019-12-17",
    "Open": 3195.399902,
    "High": 3198.219971,
    "Low": 3191.030029,
    "Close": 3192.52002,
    "Volume": 3837540000
  },
  {
    "Date": "2019-12-18",
    "Open": 3195.209961,
    "High": 3198.47998,
    "Low": 3191.139893,
    "Close": 3191.139893,
    "Volume": 4014080000
  },
  {
    "Date": "2019-12-19",
    "Open": 3192.320068,
    "High": 3205.47998,
    "Low": 3192.320068,
    "Close": 3205.370117,
    "Volume": 3720450000
  },
  {
    "Date": "2019-12-20",
    "Open": 3223.330078,
    "High": 3225.649902,
    "Low": 3216.030029,
    "Close": 3221.219971,
    "Volume": 6454270000
  },
  {
    "Date": "2019-12-23",
    "Open": 3226.050049,
    "High": 3227.780029,
    "Low": 3222.300049,
    "Close": 3224.01001,
    "Volume": 3060610000
  },
  {
    "Date": "2019-12-24",
    "Open": 3225.449951,
    "High": 3226.429932,
    "Low": 3220.51001,
    "Close": 3223.379883,
    "Volume": 1296540000
  },
  {
    "Date": "2019-12-26",
    "Open": 3227.199951,
    "High": 3240.080078,
    "Low": 3227.199951,
    "Close": 3239.909912,
    "Volume": 2160680000
  },
  {
    "Date": "2019-12-27",
    "Open": 3247.22998,
    "High": 3247.929932,
    "Low": 3234.370117,
    "Close": 3240.02002,
    "Volume": 2428670000
  },
  {
    "Date": "2019-12-30",
    "Open": 3240.090088,
    "High": 3240.919922,
    "Low": 3216.570068,
    "Close": 3221.290039,
    "Volume": 3013290000
  },
  {
    "Date": "2019-12-31",
    "Open": 3215.179932,
    "High": 3231.719971,
    "Low": 3212.030029,
    "Close": 3230.780029,
    "Volume": 2893810000
  },
  {
    "Date": "2020-01-02",
    "Open": 3244.669922,
    "High": 3258.139893,
    "Low": 3235.530029,
    "Close": 3257.850098,
    "ç": 3458250000
  }
]